/* XPM */
static char * notfound_xpm[] = {
"25 20 97 2",
"  	c None",
". 	c #4F5259",
"+ 	c #505358",
"@ 	c #4D5055",
"# 	c #4C5053",
"$ 	c #4B4F52",
"% 	c #4A4E51",
"& 	c #484C4F",
"* 	c #474B4E",
"= 	c #464A4D",
"- 	c #45494C",
"; 	c #4E5255",
"> 	c #4F5356",
", 	c #505457",
"' 	c #515055",
") 	c #504F54",
"! 	c #4F4E53",
"~ 	c #4E4D52",
"{ 	c #4A4D54",
"] 	c #494C51",
"^ 	c #494D50",
"/ 	c #4D5154",
"( 	c #0B8FE8",
"_ 	c #515558",
": 	c #4D4C51",
"< 	c #4C4B50",
"[ 	c #4B4A4F",
"} 	c #484B50",
"| 	c #F90707",
"1 	c #49484D",
"2 	c #48474C",
"3 	c #4E5156",
"4 	c #44484B",
"5 	c #43474A",
"6 	c #4A494E",
"7 	c #525156",
"8 	c #444849",
"9 	c #434748",
"0 	c #45494A",
"a 	c #474B4A",
"b 	c #474B4C",
"c 	c #535257",
"d 	c #484C4B",
"e 	c #494D4C",
"f 	c #47464B",
"g 	c #46454A",
"h 	c #484C4D",
"i 	c #434247",
"j 	c #444348",
"k 	c #454A46",
"l 	c #454948",
"m 	c #424649",
"n 	c #414548",
"o 	c #454449",
"p 	c #464847",
"q 	c #434746",
"r 	c #464A4B",
"s 	c #404447",
"t 	c #3F4346",
"u 	c #3E4245",
"v 	c #464648",
"w 	c #48484A",
"x 	c #4B4B4D",
"y 	c #474749",
"z 	c #464749",
"A 	c #4C4C4E",
"B 	c #4B4B4B",
"C 	c #4A4A4A",
"D 	c #49494B",
"E 	c #484848",
"F 	c #45464A",
"G 	c #424347",
"H 	c #464646",
"I 	c #474747",
"J 	c #494949",
"K 	c #434448",
"L 	c #3C3D41",
"M 	c #3B3F42",
"N 	c #3C4043",
"O 	c #454547",
"P 	c #454545",
"Q 	c #444444",
"R 	c #434343",
"S 	c #424146",
"T 	c #414246",
"U 	c #404445",
"V 	c #424242",
"W 	c #3F3F3F",
"X 	c #3D3D3D",
"Y 	c #3B3B3B",
"Z 	c #47484C",
"` 	c #3D4144",
" .	c #3D4142",
"..	c #414143",
"+.	c #404040",
"@.	c #3E3E3E",
"#.	c #3C3C3E",
". + @ # $ % & * = - & % # ; > , , , ' ) ) ) ! ! ~ ",
"{ ] & & ^ % # / ; > ( ( ; _ _ , ; / ) ! ~ : < [ [ ",
"} } % % $ / ; , ( | | | | ( ; $ & = : < < [ 1 2 2 ",
"@ 3 _ , > ; / | | ( ( ( % | ( = 4 5 [ [ 6 6 1 1 1 ",
"; > ; / # $ ( | ( = & * = | | - = * [ < < < : : ~ ",
"^ ^ 5 4 - = ( | ( % = - 5 ( | * % / : : ~ ! ) ' 7 ",
"8 9 = = = = ( | = = * * ( | ( % % % < < < < < [ [ ",
"0 0 * * * * * * * * * ( | | & ^ % % ) ) ) ! ! ! ~ ",
"a b & & & & & & & & & | ( ( ^ ^ % % c c 7 7 ' ) ) ",
"d e ^ ^ ^ ^ ^ ^ ^ ^ | ( % $ $ $ $ $ & ! ! ~ : < < ",
"d e ^ ^ ^ ^ ^ ^ ^ ( | ( # # # $ & & 2 2 2 f f g g ",
"a a h & & & & & ( | ( % % ^ ^ & & & i i i i i j j ",
"k l b * * * * * ( | ( 4 4 5 5 m m n i i j o g f f ",
"p q r = = = = = ( | ( s t u u & & & o v f w 6 x < ",
"y z $ % & = 4 n ( | ( t s n m 5 4 4 A B x C D E y ",
"g F G s s s s t t ( m m 5 5 5 4 4 8 v H I I E E J ",
"j K L M N u s m ( 4 - - - & & 4 5 9 O P P Q Q Q R ",
"S T T s n 5 - * | | ( - 4 5 m & s U y H Q V W X Y ",
"S T Z - - - = = ( | ( m n s t u `  ...+.+.+.W W @.",
"S T F 5 m n s t t u t t u u u ` `  .#.X W V H J B "};
