/* XPM */
static char * setup_xpm[] = {
"25 20 213 2",
"  	c None",
". 	c #ADADAD",
"+ 	c #C6C6BD",
"@ 	c #9C9CA5",
"# 	c #A59CA5",
"$ 	c #BDBDBD",
"% 	c #B5B5AD",
"& 	c #A5A59C",
"* 	c #ADADA5",
"= 	c #B5BDAD",
"- 	c #CED6C6",
"; 	c #CECEBD",
"> 	c #000000",
", 	c #8C8C8C",
"' 	c #BDBDB5",
") 	c #293131",
"! 	c #737B7B",
"~ 	c #7B7B7B",
"{ 	c #525A5A",
"] 	c #9CA594",
"^ 	c #D6D6CE",
"/ 	c #BDB5AD",
"( 	c #9CA5AD",
"_ 	c #B5A5BD",
": 	c #BDADB5",
"< 	c #BDC6BD",
"[ 	c #181818",
"} 	c #949494",
"| 	c #393939",
"1 	c #E7DEE7",
"2 	c #E7E7E7",
"3 	c #AD9CA5",
"4 	c #9CA59C",
"5 	c #ADA5AD",
"6 	c #CECEC6",
"7 	c #182121",
"8 	c #39424A",
"9 	c #D6D6DE",
"0 	c #DEDEDE",
"a 	c #ADB5B5",
"b 	c #B5ADC6",
"c 	c #BDA5D6",
"d 	c #CEBDDE",
"e 	c #CECECE",
"f 	c #DEDED6",
"g 	c #C6BDC6",
"h 	c #B5BDCE",
"i 	c #9CC684",
"j 	c #94B57B",
"k 	c #9CCE73",
"l 	c #D6D6D6",
"m 	c #212121",
"n 	c #E7EFE7",
"o 	c #B5B5B5",
"p 	c #EFEFDE",
"q 	c #C6C6B5",
"r 	c #E7F7C6",
"s 	c #FFFF6B",
"t 	c #F7F731",
"u 	c #C6EF42",
"v 	c #848452",
"w 	c #292139",
"x 	c #949CA5",
"y 	c #D6DEEF",
"z 	c #6B7373",
"A 	c #7B8C8C",
"B 	c #BDC6F7",
"C 	c #BDCECE",
"D 	c #FFEF52",
"E 	c #FFEF73",
"F 	c #D6C663",
"G 	c #ADAD21",
"H 	c #424218",
"I 	c #18294A",
"J 	c #847B94",
"K 	c #EFEFE7",
"L 	c #BDC6B5",
"M 	c #394242",
"N 	c #EFE7EF",
"O 	c #FFFFFF",
"P 	c #F7D684",
"Q 	c #FFC618",
"R 	c #C6B58C",
"S 	c #FFEF39",
"T 	c #D6BD39",
"U 	c #635229",
"V 	c #636300",
"W 	c #313918",
"X 	c #737384",
"Y 	c #EFA531",
"Z 	c #FFF729",
"` 	c #B5AD39",
" .	c #9CA5CE",
"..	c #BDB5B5",
"+.	c #EFFFFF",
"@.	c #F7FFFF",
"#.	c #526331",
"$.	c #A57B00",
"%.	c #FFB500",
"&.	c #FFC631",
"*.	c #FFFF5A",
"=.	c #DEC652",
"-.	c #737B21",
";.	c #4A4218",
">.	c #FFEF29",
",.	c #947B08",
"'.	c #000018",
").	c #A5B5CE",
"!.	c #FFFFEF",
"~.	c #FFE7DE",
"{.	c #7B7B73",
"].	c #848429",
"^.	c #FFB508",
"/.	c #FFDE21",
"(.	c #FFF752",
"_.	c #6B6B00",
":.	c #FFD629",
"<.	c #313121",
"[.	c #4A426B",
"}.	c #F7DED6",
"|.	c #B5B5BD",
"1.	c #D6DEE7",
"2.	c #EFD6A5",
"3.	c #FFCE29",
"4.	c #FFC621",
"5.	c #FFCE42",
"6.	c #FFC639",
"7.	c #FFAD08",
"8.	c #FFD65A",
"9.	c #D6CE42",
"0.	c #6B7321",
"a.	c #5A6300",
"b.	c #FFCE39",
"c.	c #EFBD29",
"d.	c #B59C84",
"e.	c #4A4210",
"f.	c #425210",
"g.	c #294221",
"h.	c #9C7B31",
"i.	c #FFCE84",
"j.	c #A5B563",
"k.	c #636B10",
"l.	c #AD9439",
"m.	c #C6B539",
"n.	c #4A5A42",
"o.	c #636B08",
"p.	c #6B6B10",
"q.	c #52637B",
"r.	c #39426B",
"s.	c #CE9C42",
"t.	c #FFDE18",
"u.	c #FFC610",
"v.	c #FFDE31",
"w.	c #FFBD63",
"x.	c #DEAD4A",
"y.	c #DEA563",
"z.	c #FFF739",
"A.	c #FFE718",
"B.	c #FFCE18",
"C.	c #BDBD29",
"D.	c #294A9C",
"E.	c #5263A5",
"F.	c #6B7B9C",
"G.	c #EFF7EF",
"H.	c #9C949C",
"I.	c #4A4A52",
"J.	c #525A52",
"K.	c #52525A",
"L.	c #526363",
"M.	c #FFE731",
"N.	c #FFFF00",
"O.	c #E7A521",
"P.	c #6B5A21",
"Q.	c #BDAD29",
"R.	c #FFC642",
"S.	c #524239",
"T.	c #736B42",
"U.	c #FFFF31",
"V.	c #EFF7F7",
"W.	c #6B6B6B",
"X.	c #8C8C9C",
"Y.	c #D6C673",
"Z.	c #BDA529",
"`.	c #424A4A",
" +	c #294263",
".+	c #214A7B",
"++	c #9C8C73",
"@+	c #FFF700",
"#+	c #213173",
"$+	c #29426B",
"%+	c #7B8494",
"&+	c #ADA56B",
"*+	c #BDA500",
"=+	c #636342",
"-+	c #E7EFF7",
";+	c #EFEFEF",
">+	c #848C9C",
",+	c #21314A",
"'+	c #424A5A",
")+	c #C6CEE7",
"!+	c #AD8C8C",
"~+	c #EFCE21",
"{+	c #C69442",
"]+	c #B5B5CE",
"^+	c #8C94A5",
"/+	c #4A5A6B",
"(+	c #212942",
"_+	c #F7F7EF",
":+	c #5A7373",
"<+	c #4A6363",
"[+	c #294A4A",
"}+	c #9C9CAD",
"|+	c #9CADBD",
"                                                  ",
"      .             +       +     @ #             ",
"      $   % & * * = - ; + ;       > ,             ",
"        ' ) ! ~ { ] ^ / ( . _ : < [ }             ",
"        = | 1 ; ' 2 - 3 3 3 4 5 6 7 }             ",
"        % 8 6 % 9 0 + % a b c d e [ }             ",
"      $ + ] 2 f 0 - ; g h i j k l m } n           ",
"      o 0 p + q ' ; 6 a r s t u v w x y           ",
"      g 6 { z ! A h B C D E F G H I J K L         ",
"        ' M N O P Q R C S T U V W X Y Z `  .      ",
"        ..8 +.@.#.$.%.&.*.=.-.V ;.*.>.,.'.).      ",
"        L A !.~.{.].^./.(.=.]._.;.Z :.<.[.}.g     ",
"      |.1.2.3.4.5.6.7.8.E 9.0.a.W 5.:.&.b.Q c.o   ",
"      |.K d.e.f.g.h.Q 6.i.j.k.f.l.S :.m.n.o.p.*   ",
"        O e q.r.r.s.t.u.v.w.x.y.z.A.B.C.D.E.F.G.  ",
"      H.I.J.K.L.M.N.O.U P.Q.t.R.S.T.T /.U.R V.    ",
"      } I.W.z X.Y.Z.`. +.+++@+R.#+$+%+&+*+=+-+    ",
"        ;+;+;+  >+,+'+$ )+!+~+{+]+  ^+/+(+X       ",
"                o @ $ n _+:+<+[+    _+@ }+_+      ",
"                          ( |+X.                  "};
